{
    "config": {
        "startDate": "2013-04-01",
        "endDate": "2014-03-31"
    },
    "repositories": {
        "PPC URL Checker": "git@bitbucket.org:epiphanyinternaltools/awurlchecker-fusion.git",
        "Epiphany Home": "git@bitbucket.org:epiphanyinternaltools/epiphany-home.git",
        "Fusion": "git@bitbucket.org:epiphanyinternaltools/fusion.git",
        "Kempinski Budgets": "git@bitbucket.org:epiphanyinternaltools/kempinski-budgets.git",
        "Linkfusion": "git@bitbucket.org:epiphanyinternaltools/linkfusion.git",
        "PPC Activity Checker": "git@bitbucket.org:epiphanyinternaltools/ppc-activity-checker.git",
        "PPC Budget Tracker": "git@bitbucket.org:epiphanyinternaltools/ppc-budget-tracker.git",
        "PPC Tools": "git@bitbucket.org:epiphanyinternaltools/ppc-tools.git",
        "SEO Tools": "git@bitbucket.org:epiphanyinternaltools/seo-tools.git",
        "Resource Planner": "git@bitbucket.org:epiphanyinternaltools/resource-planner.git",
        "SEO Healthcheck": "git@bitbucket.org:epiphanyinternaltools/seo-health-check.git",
        "Workflow": "git@bitbucket.org:epiphanyinternaltools/workflow.git",
        "Quality Score Tracker": "git@bitbucket.org:epiphanyinternaltools/ppc-quality-score-tracker.git",
        "Timesheets": "git@bitbucket.org:epiphanyinternaltools/timesheets.git",
        "Employee Database (beta)": "git@bitbucket.org:epiphanyinternaltools/employee-database.git",
        "PPC Scraper": "git@bitbucket.org:epiphanyinternaltools/product-data-poc.git",
        "Meeting Notes": "git@bitbucket.org:epiphanyinternaltools/meeting-notes.git",
        "Sector Reports": "git@bitbucket.org:epiphanyinternaltools/sector-reports.git",
        "Competitor Monitor": "git@bitbucket.org:epiphanyinternaltools/competitor-monitor.git",
        "Surveys": "git@bitbucket.org:epiphanyinternaltools/survey-engine.git",
        "Sales Assist": "git@bitbucket.org:epiphanyinternaltools/sales-assist.git",
        "Tweet Harvester": "git@bitbucket.org:epiphanyinternaltools/tweet-harvester.git",
        "Client Vis": "git@bitbucket.org:epiphanyinternaltools/client-visibility.git",
        "AdParam Updater": "git@bitbucket.org:epiphanyinternaltools/adparam-updater.git",
        "Brand Term Checker ": "git@bitbucket.org:epiphanyinternaltools/google-brand-term-checker.git",
        "Browser Stats": "git@bitbucket.org:epiphanyinternaltools/browser-stats.git",
        "Change Request": "git@bitbucket.org:epiphanyinternaltools/change-request.git",
        "Disavow DB": "git@bitbucket.org:epiphanyinternaltools/disavow-database.git",
        "First For Lawyers Reporting": "git@bitbucket.org:epiphanyinternaltools/ffl-report.git",
        "Grapher": "git@bitbucket.org:epiphanyinternaltools/grapher.git",
        "Link Graph": "git@bitbucket.org:epiphanyinternaltools/link-graph.git",
        "Matches Scraper": "git@bitbucket.org:epiphanyinternaltools/matches-leech.git",
        "Packages": "git@bitbucket.org:epiphanyinternaltools/packages.git",
        "Prospect Vis": "git@bitbucket.org:epiphanyinternaltools/prospect-visibility.git",
        "Recruitment": "git@bitbucket.org:epiphanyinternaltools/recruitment.git",
        "Zemanta Feed": "git@bitbucket.org:epiphanyinternaltools/zemantafeed.git",
        "Sales Tool": "git@bitbucket.org:epiphanyinternaltools/ssrt.git"
    }
}